Homework 4 Dashboard - Exploring the Bakery Section of the Instacart Dataset
…
Barchart Of The Total Number of Items Ordered Per Aisle in Bakery Department

instacart_data %>%
  filter(department == "bakery") %>% 
  group_by(aisle) %>% 
  summarize(n = n()) %>%
  mutate(aisle = fct_reorder(aisle, n)) %>% 
  plot_ly(x = ~aisle, y = ~n, color = ~aisle, type = "bar")

Chart C

instacart_data %>%
  filter(department == "bakery")

## # A tibble: 48,394 x 15
##    order_id product_id add_to_cart_ord… reordered user_id eval_set
##       <int>      <int>            <int>     <int>   <int> <chr>   
##  1       98       3880               43         1   56463 train   
##  2      170       5077                5         1  182389 train   
##  3     1139      46993                4         0   34221 train   
##  4     1143      42958               12         0   79725 train   
##  5     1145      28083                3         1  127134 train   
##  6     1145      21158               16         1  127134 train   
##  7     1145      10673               24         1  127134 train   
##  8     1572      13517               11         1  135489 train   
##  9     1591      17203                1         1  188528 train   
## 10     1983      42637               14         0  134295 train   
## # ... with 48,384 more rows, and 9 more variables: order_number <int>,
## #   order_dow <int>, order_hour_of_day <int>,
## #   days_since_prior_order <int>, product_name <chr>, aisle_id <int>,
## #   department_id <int>, aisle <chr>, department <chr>
